{
 "font": {
  "fileName": "graphicoreBitmapFont4-Thin"
 }, 
 "generator": {
  "contextualShape": true, 
  "insideCornerRadius": 0.5, 
  "offset": 40, 
  "outsideCornerRadius": 0, 
  "width": 45
 }, 
 "inherit": [
  "./options/options.json"
 ], 
 "metadata": {
  "familyname": "graphicore Bitmap Font 4", 
  "fontname": "graphicoreBitmapFont4-Thin", 
  "fullname": "graphicore Bitmap Font 4 Thin", 
  "more": {
   "English": {
    "Descriptor": "This is a font based on a bitmap font or pixel font. It's built with graphicore Bitmap Font Building (graphicoreBMFB) and Fontforge.", 
    "Designer": "Lasse Fister, graphicore(tm)", 
    "Designer URL": "http://graphicore.de", 
    "License": "OFL", 
    "License URL": "http://scripts.sil.org/OFL", 
    "Manufacturer": "Lasse Fister, graphicore(tm)", 
    "SubFamily": "Thin", 
    "Trademark": "graphicore, graphicoreBMFB and graphicore Bitmap Font 4 are a trademarks of Lasse Fister, http://graphicore.de", 
    "Vendor URL": "http://graphicore.de"
   }
  }, 
  "weight": "Thin"
 }
}