{
 "font": {
  "fileName": "graphicoreBitmapFont7-Bold"
 }, 
 "generator": {
  "contextualShape": true, 
  "insideCornerRadius": 0.28999999999999998, 
  "invertOutside": true, 
  "offset": -30, 
  "outsideCornerRadius": 0.28999999999999998, 
  "width": 185
 }, 
 "inherit": [
  "./options/options.json"
 ], 
 "metadata": {
  "familyname": "graphicore Bitmap Font 7", 
  "fontname": "graphicoreBitmapFont7-Bold", 
  "fullname": "graphicore Bitmap Font 7 Bold", 
  "more": {
   "English": {
    "Descriptor": "This is a font based on a bitmap font or pixel font. It's built with graphicore Bitmap Font Building (graphicoreBMFB) and Fontforge.", 
    "Designer": "Lasse Fister, graphicore(tm)", 
    "Designer URL": "http://graphicore.de", 
    "License": "OFL", 
    "License URL": "http://scripts.sil.org/OFL", 
    "Manufacturer": "Lasse Fister, graphicore(tm)", 
    "SubFamily": "Bold", 
    "Trademark": "graphicore, graphicoreBMFB and graphicore Bitmap Font 7 are a trademarks of Lasse Fister, http://graphicore.de", 
    "Vendor URL": "http://graphicore.de"
   }
  }, 
  "weight": "Bold"
 }
}