{
 "font": {
  "fileName": "{{ file_name }}-1-Regular"
 }, 
 "generator": {
  "contextualShape": false, 
  "insideCornerRadius": 0.28999999999999998, 
  "offset": 5, 
  "outsideCornerRadius": 0, 
  "width": 115
 }, 
 "inherit": [
  "./options/options.json"
 ], 
 "metadata": {
  "familyname": "{{ font_name }} 1", 
  "fontname": "{{ file_name }}-1-Regular", 
  "fullname": "{{ font_name }} 1 Regular", 
  "more": {
   "English": {
    "Descriptor": "{{ description }}", 
    "Designer": "{{ designer_name }}", 
    "Designer URL": "{{ designer_url }}", 
    "License": "OFL", 
    "License URL": "http://scripts.sil.org/OFL", 
    "Manufacturer": "{{ manufacturer_name }}", 
    "SubFamily": "Regular", 
    "Trademark": "{{ trademark_notice }}", 
    "Vendor URL": "{{ vendor_url }}"
   }
  }, 
  "weight": "Regular"
 }
}