{
 "font": {
  "fileName": "{{ file_name }}-2-Medium"
 }, 
 "generator": {
  "contextualShape": false, 
  "insideCornerRadius": 0.5, 
  "offset": -1, 
  "outsideCornerRadius": 0, 
  "width": 127
 }, 
 "inherit": [
  "./options/options.json"
 ], 
 "metadata": {
  "familyname": "{{ font_name }} 2", 
  "fontname": "{{ file_name }}-2-Medium", 
  "fullname": "{{ font_name }} 2 Medium", 
  "more": {
   "English": {
    "Descriptor": "{{ description }}", 
    "Designer": "{{ designer_name }}", 
    "Designer URL": "{{ designer_url }}", 
    "License": "OFL", 
    "License URL": "http://scripts.sil.org/OFL", 
    "Manufacturer": "{{ manufacturer_name }}", 
    "SubFamily": "Medium", 
    "Trademark": "{{ trademark_notice }}", 
    "Vendor URL": "{{ vendor_url }}"
   }
  }, 
  "weight": "Medium"
 }
}