{
 "font": {
  "fileName": "{{ file_name }}-3-Light"
 }, 
 "generator": {
  "contextualShape": true, 
  "insideCornerRadius": 0.28999999999999998, 
  "offset": 20, 
  "outsideCornerRadius": 0, 
  "width": 85
 }, 
 "inherit": [
  "./options/options.json"
 ], 
 "metadata": {
  "familyname": "{{ font_name }} 3", 
  "fontname": "{{ file_name }}-3-Light", 
  "fullname": "{{ font_name }} 3 Light", 
  "more": {
   "English": {
    "Descriptor": "{{ description }}", 
    "Designer": "{{ designer_name }}", 
    "Designer URL": "{{ designer_url }}", 
    "License": "OFL", 
    "License URL": "http://scripts.sil.org/OFL", 
    "Manufacturer": "{{ manufacturer_name }}", 
    "SubFamily": "Light", 
    "Trademark": "{{ trademark_notice }}", 
    "Vendor URL": "{{ vendor_url }}"
   }
  }, 
  "weight": "Light"
 }
}