{
 "font": {
  "fileName": "{{ file_name }}-0-Heavy"
 }, 
 "generator": {
  "contextualShape": false, 
  "insideCornerRadius": 0, 
  "offset": -45, 
  "outsideCornerRadius": 0, 
  "width": 215
 }, 
 "inherit": [
  "./options/options.json"
 ], 
 "metadata": {
  "familyname": "{{ font_name }} 0", 
  "fontname": "{{ file_name }}-0-Heavy", 
  "fullname": "{{ font_name }} 0 Heavy", 
  "more": {
   "English": {
    "Descriptor": "{{ description }}", 
    "Designer": "{{ designer_name }}", 
    "Designer URL": "{{ designer_url }}", 
    "License": "OFL", 
    "License URL": "http://scripts.sil.org/OFL", 
    "Manufacturer": "{{ manufacturer_name }}", 
    "SubFamily": "Heavy", 
    "Trademark": "{{ trademark_notice }}", 
    "Vendor URL": "{{ vendor_url }}"
   }
  }, 
  "weight": "Heavy"
 }
}