{
 "font": {
  "fileName": "{{ file_name }}-4-Extra-Black"
 }, 
 "generator": {
  "contextualShape": true, 
  "insideCornerRadius": 0.5, 
  "offset": -75, 
  "outsideCornerRadius": 0, 
  "width": 275
 }, 
 "inherit": [
  "./options/options.json"
 ], 
 "metadata": {
  "familyname": "{{ font_name }} 4", 
  "fontname": "{{ file_name }}-4-Extra-Black", 
  "fullname": "{{ font_name }} 4 Extra-Black", 
  "more": {
   "English": {
    "Descriptor": "{{ description }}", 
    "Designer": "{{ designer_name }}", 
    "Designer URL": "{{ designer_url }}", 
    "License": "OFL", 
    "License URL": "http://scripts.sil.org/OFL", 
    "Manufacturer": "{{ manufacturer_name }}", 
    "SubFamily": "Extra-Black", 
    "Trademark": "{{ trademark_notice }}", 
    "Vendor URL": "{{ vendor_url }}"
   }
  }, 
  "weight": "Extra-Black"
 }
}