{
 "font": {
  "fileName": "graphicoreBitmapFont8-Heavy"
 }, 
 "generator": {
  "contextualShape": true, 
  "insideCornerRadius": 0.5, 
  "invertOutside": true, 
  "offset": -45, 
  "outsideCornerRadius": 0.5, 
  "width": 215
 }, 
 "inherit": [
  "./options/options.json"
 ], 
 "metadata": {
  "familyname": "graphicore Bitmap Font 8", 
  "fontname": "graphicoreBitmapFont8-Heavy", 
  "fullname": "graphicore Bitmap Font 8 Heavy", 
  "more": {
   "English": {
    "Descriptor": "This is a font based on a bitmap font or pixel font. It's built with graphicore Bitmap Font Building (graphicoreBMFB) and Fontforge.", 
    "Designer": "Lasse Fister, graphicore(tm)", 
    "Designer URL": "http://graphicore.de", 
    "License": "OFL", 
    "License URL": "http://scripts.sil.org/OFL", 
    "Manufacturer": "Lasse Fister, graphicore(tm)", 
    "SubFamily": "Heavy", 
    "Trademark": "graphicore, graphicoreBMFB and graphicore Bitmap Font 8 are a trademarks of Lasse Fister, http://graphicore.de", 
    "Vendor URL": "http://graphicore.de"
   }
  }, 
  "weight": "Heavy"
 }
}