{
 "font": {
  "fileName": "graphicoreBitmapFont3-Ultra-Black"
 }, 
 "generator": {
  "contextualShape": true, 
  "insideCornerRadius": 0.28999999999999998, 
  "offset": -90, 
  "outsideCornerRadius": 0, 
  "width": 305
 }, 
 "inherit": [
  "./options/options.json"
 ], 
 "metadata": {
  "familyname": "graphicore Bitmap Font 3", 
  "fontname": "graphicoreBitmapFont3-Ultra-Black", 
  "fullname": "graphicore Bitmap Font 3 Ultra-Black", 
  "more": {
   "English": {
    "Descriptor": "This is a font based on a bitmap font or pixel font. It's built with graphicore Bitmap Font Building (graphicoreBMFB) and Fontforge.", 
    "Designer": "Lasse Fister, graphicore(tm)", 
    "Designer URL": "http://graphicore.de", 
    "License": "OFL", 
    "License URL": "http://scripts.sil.org/OFL", 
    "Manufacturer": "Lasse Fister, graphicore(tm)", 
    "SubFamily": "Ultra-Black", 
    "Trademark": "graphicore, graphicoreBMFB and graphicore Bitmap Font 3 are a trademarks of Lasse Fister, http://graphicore.de", 
    "Vendor URL": "http://graphicore.de"
   }
  }, 
  "weight": "Ultra-Black"
 }
}