{
 "font": {
  "fileName": "graphicoreBitmapFont1-Book"
 }, 
 "generator": {
  "contextualShape": false, 
  "insideCornerRadius": 0.28999999999999998, 
  "offset": 10, 
  "outsideCornerRadius": 0, 
  "width": 105
 }, 
 "inherit": [
  "./options/options.json"
 ], 
 "metadata": {
  "familyname": "graphicore Bitmap Font 1", 
  "fontname": "graphicoreBitmapFont1-Book", 
  "fullname": "graphicore Bitmap Font 1 Book", 
  "more": {
   "English": {
    "Descriptor": "This is a font based on a bitmap font or pixel font. It's built with graphicore Bitmap Font Building (graphicoreBMFB) and Fontforge.", 
    "Designer": "Lasse Fister, graphicore(tm)", 
    "Designer URL": "http://graphicore.de", 
    "License": "OFL", 
    "License URL": "http://scripts.sil.org/OFL", 
    "Manufacturer": "Lasse Fister, graphicore(tm)", 
    "SubFamily": "Book", 
    "Trademark": "graphicore, graphicoreBMFB and graphicore Bitmap Font 1 are a trademarks of Lasse Fister, http://graphicore.de", 
    "Vendor URL": "http://graphicore.de"
   }
  }, 
  "weight": "Book"
 }
}